HW 01 - R, Posit, Git, and GitHub
…
🧶 ✅ ⬆️ Write your answer in your R Markdown document under Exercise 3. In this exercise you will not only provide a written answer but also include some code and output. You should insert the code in the code chunk provided for you, knit the document to see the output, and then write your narrative for the answer based on the output of this function, and knit again to see your narrative, code, and output in the resulting document. Then, commit your changes with a commit message that says “Completed Exercise 3”, and push. Make sure to commit and push all changed files so that your Git pane is cleared up afterwards.

Let’s also look how many professors there are at each age range and what is the dominant sex. For this we need to first group_by() the age, and then do the same counting we did before but using tally().

Note

Older professors are not as common

beauty %>% 
  group_by(age) %>%
  tally(sort = TRUE)

# A tibble: 35 × 2
     age     n
   <int> <int>
 1    52    47
 2    47    41
 3    57    28
 4    43    25
 5    62    25
 6    33    23
 7    42    22
 8    50    19
 9    51    19
10    60    18
# … with 25 more rows
…
beauty %>%
  count(female, sort = TRUE)

  female   n
1      0 268
2      1 195

Let’s search for the number of male and female professors in at each age level. To do this, we can use the arrange() function. The first argument in the function is the variable we want to select the highest values of, which is n. The second argument is the number of rows to select, which is n = 5 for the top 5. It may be a bit confusing that both of these are n, but this is because we already have a variable called n in the data frame.

beauty %>% 
  group_by(female,age) %>%
  tally(sort = TRUE) %>%
  arrange(age)

# A tibble: 52 × 3
# Groups:   female [2]
   female   age     n
    <int> <int> <int>
 1      1    29     1
 2      1    31     6
 3      0    32    11
 4      1    33    18
 5      0    33     5
 6      1    34     8
 7      0    34     3
 8      0    35     9
 9      1    35     3
10      1    36     4
# … with 42 more rows
…
